…
*For this part of the assignment, you can ignore the missing values in the dataset.*

**1. Calculate the total number of steps taken per day**

Here I show you the first rows of this newly created data frame. Adding `%>% print(n = dim(activity)[1])` at the end of the following code will show all the 61 rows corresponding to all days from October and November 2012 alongside their total steps in each day.


```r
activity %>% 
  group_by(date) %>% 
  summarize(total_steps = sum(steps, na.rm = TRUE))
```

```
## # A tibble: 61 x 2
##    date       total_steps
##    <date>           <dbl>
##  1 2012-10-01           0
##  2 2012-10-02         126
##  3 2012-10-03       11352
##  4 2012-10-04       12116
##  5 2012-10-05       13294
##  6 2012-10-06       15420
##  7 2012-10-07       11015
##  8 2012-10-08           0
##  9 2012-10-09       12811
## 10 2012-10-10        9900
## # ... with 51 more rows
```
…
